{
  "products": [
    {
      "id": 1,
      "title": "product 1",
      "subtitle": "product subtitle",
      "description": "Lorem ipsum dolor sit amet consectetur adipisicing elit. Id cum voluptatum officiis laudantium molestias corporis, aliquam vel soluta obcaecati dignissimos tenetur tempora illum amet voluptatem.",
      "sizes": [
        "l",
        "s",
        "m"
      ],
      "brand": "reebok",
      "category": "men",
      "price": 17,
      "image": "/img/related-product-img-1.png"
    },
    {
      "id": 2,
      "title": "product 2",
      "subtitle": "product subtitle",
      "description": "Lorem ipsum dolor sit amet consectetur adipisicing elit. Id cum voluptatum officiis laudantium molestias corporis, aliquam vel soluta obcaecati dignissimos tenetur tempora illum amet voluptatem.",
      "sizes": [
        "l",
        "m"
      ],
      "brand": "nike",
      "category": "women",
      "price": 1032,
      "image": "/img/related-product-img-2.png"
    },
    {
      "id": 3,
      "title": "product 3",
      "subtitle": "product subtitle",
      "description": "Lorem ipsum dolor sit amet consectetur adipisicing elit. Id cum voluptatum officiis laudantium molestias corporis, aliquam vel soluta obcaecati dignissimos tenetur tempora illum amet voluptatem.",
      "sizes": [
        "xl",
        "m"
      ],
      "brand": "adidas",
      "category": "children",
      "price": 1032,
      "image": "/img/related-product-img-3.png"
    },
    {
      "id": 4,
      "title": "product 4",
      "subtitle": "product subtitle",
      "description": "Lorem ipsum dolor sit amet consectetur adipisicing elit. Id cum voluptatum officiis laudantium molestias corporis, aliquam vel soluta obcaecati dignissimos tenetur tempora illum amet voluptatem.",
      "sizes": [
        "xl",
        "l",
        "m"
      ],
      "brand": "nike",
      "category": "women",
      "price": 1032,
      "image": "/img/related-product-img-4.png"
    },
    {
      "id": 5,
      "title": "product 5",
      "subtitle": "product subtitle",
      "description": "Lorem ipsum dolor sit amet consectetur adipisicing elit. Id cum voluptatum officiis laudantium molestias corporis, aliquam vel soluta obcaecati dignissimos tenetur tempora illum amet voluptatem.",
      "sizes": [
        "xl",
        "m"
      ],
      "brand": "reebok",
      "category": "women",
      "price": 1032,
      "image": "/img/related-product-img-3.png"
    },
    {
      "id": 6,
      "title": "product 6",
      "subtitle": "product subtitle",
      "description": "Lorem ipsum dolor sit amet consectetur adipisicing elit. Id cum voluptatum officiis laudantium molestias corporis, aliquam vel soluta obcaecati dignissimos tenetur tempora illum amet voluptatem.",
      "sizes": [
        "xl",
        "l"
      ],
      "brand": "nike",
      "category": "men",
      "price": 10322,
      "image": "/img/related-product-img-1.png"
    },
    {
      "id": 7,
      "title": "product 7",
      "subtitle": "product subtitle",
      "description": "Lorem ipsum dolor sit amet consectetur adipisicing elit. Id cum voluptatum officiis laudantium molestias corporis, aliquam vel soluta obcaecati dignissimos tenetur tempora illum amet voluptatem.",
      "sizes": [
        "s",
        "l"
      ],
      "brand": "reebok",
      "category": "children",
      "price": 103,
      "image": "/img/related-product-img-2.png"
    },
    {
      "id": 8,
      "title": "product 8",
      "subtitle": "product subtitle",
      "description": "Lorem ipsum dolor sit amet consectetur adipisicing elit. Id cum voluptatum officiis laudantium molestias corporis, aliquam vel soluta obcaecati dignissimos tenetur tempora illum amet voluptatem.",
      "sizes": [
        "l",
        "s"
      ],
      "brand": "nike",
      "category": "hot deals",
      "price": 1032,
      "image": "/img/related-product-img-4.png"
    },
    {
      "id": 9,
      "title": "product 9",
      "subtitle": "product subtitle",
      "description": "Lorem ipsum dolor sit amet consectetur adipisicing elit. Id cum voluptatum officiis laudantium molestias corporis, aliquam vel soluta obcaecati dignissimos tenetur tempora illum amet voluptatem.",
      "sizes": [
        "s"
      ],
      "brand": "converse",
      "category": "men",
      "price": 999,
      "image": "/img/related-product-img-1.png"
    },
    {
      "id": 10,
      "title": "product 10",
      "subtitle": "product subtitle",
      "description": "Lorem ipsum dolor sit amet consectetur adipisicing elit. Id cum voluptatum officiis laudantium molestias corporis, aliquam vel soluta obcaecati dignissimos tenetur tempora illum amet voluptatem.",
      "sizes": [
        "xl",
        "m"
      ],
      "brand": "nike",
      "category": "men",
      "price": 1234,
      "image": "/img/related-product-img-1.png"
    },
    {
      "id": 11,
      "title": "product 11",
      "subtitle": "product subtitle",
      "description": "Lorem ipsum dolor sit amet consectetur adipisicing elit. Id cum voluptatum officiis laudantium molestias corporis, aliquam vel soluta obcaecati dignissimos tenetur tempora illum amet voluptatem.",
      "sizes": [
        "l",
        "xl"
      ],
      "brand": "adidas",
      "category": "women",
      "price": 567,
      "image": "/img/related-product-img-4.png"
    },
    {
      "id": 12,
      "title": "product 12",
      "subtitle": "product subtitle",
      "description": "Lorem ipsum dolor sit amet consectetur adipisicing elit. Id cum voluptatum officiis laudantium molestias corporis, aliquam vel soluta obcaecati dignissimos tenetur tempora illum amet voluptatem.",
      "sizes": [
        "m",
        "xl"
      ],
      "brand": "converse",
      "category": "men",
      "price": 99,
      "image": "/img/related-product-img-2.png"
    },
    {
      "id": 13,
      "title": "product 13",
      "subtitle": "product subtitle",
      "description": "Lorem ipsum dolor sit amet consectetur adipisicing elit. Id cum voluptatum officiis laudantium molestias corporis, aliquam vel soluta obcaecati dignissimos tenetur tempora illum amet voluptatem.",
      "sizes": [
        "m",
        "xl"
      ],
      "brand": "converse",
      "category": "men",
      "price": 99,
      "image": "/img/related-product-img-1.png"
    }
  ],
  "cart": [],
  "posts": [
    {
      "id": 1,
      "title": "post 1",
      "description": "Lorem ipsum dolor sit amet consectetur adipisicing elit. Id cum voluptatum officiis laudantium molestias corporis, aliquam vel soluta obcaecati dignissimos tenetur tempora illum amet voluptatem.",
      "image": "/img/post-photo-1.jpg",
      "category": [
        "life",
        "design"
      ],
      "comments": [
        {
          "comment": "Odlicno!",
          "user": "Anastazija",
          "email": "ana@gmail.com",
          "date": "2020-11-08T21:47:27.081Z"
        },
        {
          "comment": "Hello",
          "user": "dfad",
          "email": "dafa",
          "date": "2020-11-22T20:38:48.492Z"
        },
        {
          "comment": "Hello",
          "user": "Stefan ",
          "email": "dsa@kda.com",
          "date": "2020-11-22T21:12:02.408Z"
        },
        {
          "comment": "ovo je neki komentar",
          "user": "mladen",
          "email": "mladen@example.com",
          "date": "2020-11-24T21:44:36.743Z"
        },
        {
          "comment": "mladen",
          "user": "dsaf",
          "email": "fads",
          "date": "2020-11-24T21:45:58.036Z"
        }
      ]
    },
    {
      "id": 2,
      "title": "post 2",
      "description": "Lorem ipsum dolor sit amet consectetur adipisicing elit. Id cum voluptatum officiis laudantium molestias corporis, aliquam vel soluta obcaecati dignissimos tenetur tempora illum amet voluptatem.",
      "category": [
        "personality",
        "productivity"
      ],
      "image": "/img/post-photo-2.jpg",
      "comments": [
        {
          "comment": "Bravo!",
          "user": "dalibor",
          "email": "dalibor@gmail.com",
          "date": "2020-11-11T18:42:42.811Z"
        },
        {
          "comment": "super!",
          "user": "jovan",
          "email": "jovan@gmail.com",
          "date": "2020-11-11T18:43:40.598Z"
        },
        {
          "comment": "Odlicno",
          "user": "Nenad",
          "email": "dalibor@ja.com",
          "date": "2020-11-22T20:44:05.430Z"
        }
      ]
    },
    {
      "id": 3,
      "title": "post 3",
      "description": "Lorem ipsum dolor sit amet consectetur adipisicing elit. Id cum voluptatum officiis laudantium molestias corporis, aliquam vel soluta obcaecati dignissimos tenetur tempora illum amet voluptatem.",
      "category": [
        "personality",
        "design"
      ],
      "image": "/img/post-photo-3.jpg",
      "comments": []
    },
    {
      "id": 4,
      "title": "post 4",
      "description": "Lorem ipsum dolor sit amet consectetur adipisicing elit. Id cum voluptatum officiis laudantium molestias corporis, aliquam vel soluta obcaecati dignissimos tenetur tempora illum amet voluptatem.",
      "image": "/img/post-photo-4.jpg",
      "category": [
        "design"
      ],
      "comments": [
        {
          "comment": "Lorem ipsum dolor sit amet consectetur adipisicing elit. Id cum voluptatum officiis laudantium molestias corporis",
          "user": "Michael",
          "email": "michael@gmail.com",
          "date": "2020-11-11T19:55:19.919Z"
        },
        {
          "comment": "Lorem ipsum dolor sit amet consectetur adipisicing elit. Id cum voluptatum officiis laudantium molestias corporis",
          "user": "john",
          "email": "john@example.com",
          "date": "2020-11-12T03:23:26.868Z"
        }
      ]
    }
  ]
}